{
  "1": {
    "data": [
      {
        "slug": "javascript-modulo-operator-copy",
        "title": "One of the most commonly-misunderstood",
        "abstract": "One of the most commonly-misunderstood operators is Modulo (%). In this tutorial, we'll unpack exactly what this little bugger does, and learn how it can help us solve practical problems.",
        "publishedOn": "2023-09-06T12:00:00-0400",
        "author": "Shriyans Kapoor"
      },
      {
        "slug": "javascript-modulo-operator",
        "title": "Modulo Operator",
        "abstract": "One of the most commonly-misunderstood operators is Modulo (%). In this tutorial, we'll unpack exactly what this little bugger does, and learn how it can help us solve practical problems.",
        "publishedOn": "2023-09-06T12:00:00-0400",
        "author": "Shriyans Kapoor"
      },
      {
        "slug": "javascript-closures-copy",
        "title": "Closures, a core concept in JavaScript",
        "abstract": "Closures, a core concept in JavaScript, can seem cryptic and challenging to grasp. This post delves into the world of JavaScript closures, unraveling their intricacies and shedding light on their power in managing scope and preserving data across function executions.",
        "publishedOn": "2023-09-02T12:00:00-0400",
        "author": "Shriyans Kapoor"
      },
      {
        "slug": "javascript-closures",
        "title": "Can seem cryptic and challenging to grasp",
        "abstract": "Closures, a core concept in JavaScript, can seem cryptic and challenging to grasp. This post delves into the world of JavaScript closures, unraveling their intricacies and shedding light on their power in managing scope and preserving data across function executions.",
        "publishedOn": "2023-09-02T12:00:00-0400",
        "author": "Shriyans Kapoor"
      }
    ],
    "pagination": {
      "page": 1,
      "end": false,
      "count": 4,
      "totalPages": 3,
      "totalCount": 10
    }
  },
  "2": {
    "data": [
      {
        "slug": "react-and-css--copy",
        "title": "Front-end web development",
        "abstract": "Front-end web development has morphed into a dazzling spectacle of design and functionality. With the advance of tools like React and CSS, developers now wield a fascinating range of techniques to turn a standard user interface into an interactive, engaging experience. This blog post explores the magic of integrating React and CSS in front-end development.",
        "publishedOn": "2023-08-29T12:00:00-0400",
        "author": "Shriyans Kapoor"
      },
      {
        "slug": "react-and-css-copy-copy",
        "title": "Back-end web development",
        "abstract": "Front-end web development has morphed into a dazzling spectacle of design and functionality. With the advance of tools like React and CSS, developers now wield a fascinating range of techniques to turn a standard user interface into an interactive, engaging experience. This blog post explores the magic of integrating React and CSS in front-end development.",
        "publishedOn": "2023-08-29T12:00:00-0400",
        "author": "Shriyans Kapoor"
      },
      {
        "slug": "react-and-css-copy",
        "title": "This article was generated by ChatGPT",
        "abstract": "Front-end web development has morphed into a dazzling spectacle of design and functionality. With the advance of tools like React and CSS, developers now wield a fascinating range of techniques to turn a standard user interface into an interactive, engaging experience. This blog post explores the magic of integrating React and CSS in front-end development.",
        "publishedOn": "2023-08-29T12:00:00-0400",
        "author": "Shriyans Kapoor"
      },
      {
        "slug": "react-and-css",
        "title": "But how can we harness the full potential",
        "abstract": "Front-end web development has morphed into a dazzling spectacle of design and functionality. With the advance of tools like React and CSS, developers now wield a fascinating range of techniques to turn a standard user interface into an interactive, engaging experience. This blog post explores the magic of integrating React and CSS in front-end development.",
        "publishedOn": "2023-08-29T12:00:00-0400",
        "author": "Shriyans Kapoor"
      }
    ],
    "pagination": {
      "page": 2,
      "end": false,
      "count": 4,
      "totalPages": 3,
      "totalCount": 10
    }
  },
  "3": {
    "data": [
      {
        "slug": "css-font-size-copy",
        "title": "Typography is a fundamental",
        "abstract": "Typography is a fundamental aspect of any web page's design, shaping not only readability but also a site's overall personality. At the heart of this process is the CSS font-size property - a simple, yet incredibly versatile, tool that influences the visual hierarchy of our content.",
        "publishedOn": "2023-07-11T12:00:00-0400",
        "author": "Shriyans Kapoor"
      },
      {
        "slug": "css-font-size",
        "title": "Baspect of any web page's design",
        "abstract": "Typography is a fundamental aspect of any web page's design, shaping not only readability but also a site's overall personality. At the heart of this process is the CSS font-size property - a simple, yet incredibly versatile, tool that influences the visual hierarchy of our content.",
        "publishedOn": "2023-07-11T12:00:00-0400",
        "author": "Shriyans Kapoor"
      }
    ],
    "pagination": {
      "page": 3,
      "end": true,
      "count": 2,
      "totalPages": 3,
      "totalCount": 10
    }
  }
}